Whose ideas are worth spreading? The representation of women and ethnic groups in TED talks - A Small Replication using R
…
After inspecting the different topic models, we found that the model with 30 topics includes the most useful topics for our analysis.

Now lets see what this topic model tells us about the Ted Talk Corpus and our research questions.

Highest word probabilities for each topic

In order to gain valuable insights into the topics found and to be able to make nice visualizations, I would recommend using ggplot2.

To do so, first, we have to transform our stm-object to a ggplot2- and tidyverse compatible format using the {tidytext}-package.

td_beta <- tidy(stm30[[1]]) 
td_beta

## # A tibble: 144,150 x 3
##    topic term      beta
##    <int> <chr>    <dbl>
##  1     1 $     2.48e-81
##  2     2 $     1.08e- 5
##  3     3 $     5.24e-12
##  4     4 $     4.29e- 4
##  5     5 $     9.85e-23
##  6     6 $     4.21e-27
##  7     7 $     4.56e-11
##  8     8 $     1.90e- 4
##  9     9 $     4.49e-20
## 10    10 $     1.40e-21
## # ... with 144,140 more rows
…
